{
  "About": {
    "about-fin": "Fin beschäftigt sich seit 2007 mit kollaborativen Online-Gemeinschaften und begann als Wikipedia-Administratorin. Jetzt verbringt sie ihre Freizeit damit, extreme Gemeinschaften zu erforschen und die Menschen über Online-Fehlinformationen aufzuklären.",
    "about-jezza": "Jezza kam 2019 zum WTS-Projekt, frustriert von den werbebasierten sozialen Medien und dem dort herrschenden destruktiven Ton. Xies hat in mehreren Bereichen gearbeitet, darunter in Gärten und auf Viehweiden. Jez lebt mit zwei Menschen, drei Katzen und vielen Pflanzen zusammen.",
    "about-jimmy": "Jimmy Wales ist der Gründer der Wikipedia und Mitbegründer von Fandom. WT.Social ist sein Pilotprojekt, mit dem er versucht, eine gesündere (für dich und die Welt) Plattform für ein soziales Netzwerk aufzubauen, die sich darauf konzentriert, qualitativ hochwertige Stimmen online zu verstärken.",
    "about-orit": "Orit ist die Gründerin von Glass Voices, Mitbegründerin von WikiTribune, ehemalige CEO der Jimmy Wales Foundation und Menschenrechtsaktivistin",
    "about-paragraph": "WTS wurde mit dem Ziel gegründet, Falschinformationen im Bereich der sozialen Medien zu bekämpfen. Wir sind eine gemeinschaftlich geführte und moderierte Plattform, die sich der Aufgabe verschrieben hat, einen Raum zu schaffen, in dem Diskussionen gedeihen können und Falschinformationen schnell beseitigt werden. Mehr über die Philosophie unserer Plattform erfahrt ihr in unseren FAQs.",
    "about-simon": "Simon ist seit etwa zwei Jahrzehnten als Entwickler tätig und hat viele Veränderungen in der Branche miterlebt. Er begann schon als kleiner Junge mit der Programmierung von textbasierten Abenteuerspielen. Seit die Welt durch den Brexit und Trump ins Chaos gestürzt ist, hat er beschlossen, seine Fähigkeiten zu nutzen, um Fehlinformationen zu bekämpfen.",
    "fin-title": "Kopf der Community / Junior Entwicklerin / Mitbegründerin",
    "jezza-title": "Verwalter der Community / Junior Entwicklerin",
    "jimmy-title": "Gründer",
    "orit-title": "Geldbeschaffer",
    "simon-title": "Führender Entwickler / Mitbegründerin"
  },
  "Admin": {
    "admin-stuff": "Admin Stuff (GERMAN)",
    "edit-about-page": "You are now editing the about page (GERMAN)",
    "get-user-groups": "Nutzergruppen abrufen"
  },
  "Annual": "Jährlich",
  "Archive": {
    "archive": "archivieren",
    "archive-comment": "Archive Comment",
    "archive-post": "Beitrag archivieren",
    "are-you-sure": "Bist du sicher, dass du diesen Beitrag archivieren möchtest?",
    "are-you-sure-comment": "Are you sure you would like to archive this comment?",
    "are-you-sure-post": "Are you sure you would like to archive this post?",
    "cancel": "Abbrechen",
    "deleted": "[DELETED]"
  },
  "Auth": {
    "account-email-verification": "Verifizierung des E-Mail-Kontos",
    "checking-details": "Überprüfung der Details…",
    "checking-for-bots": "Überprüfung auf Bots",
    "email-confirmation-required": "E-Mail-Bestätigung erforderlich",
    "email-match": "Die eingegebene E-Mail-Adresse und das Passwort stimmen nicht überein",
    "human-detected": "Als Mensch erkannt",
    "make-a-new-account": "Bitte beachte, dass du ein neues Konto anlegen musst, um Zugang zu dieser Website zu erhalten. Die WTS 1.0-Konten werden demnächst auf dieser Plattform zusammengeführt.",
    "please-check-your-email": "Bitte checke deine E-Mails",
    "please-choose-new-password": "Bitte wähle ein neues Passwort",
    "please-confirm-email": "Bitte bestätige deine E-Mail-Adresse, und schon bist du dabei",
    "resend-email": "E-Mail erneut senden",
    "start-password-recovery": "Starte die Passwortwiederherstellung"
  },
  "BeginnersGuide": {
    "how-to": {
      "change-your-settings": {
        "text": "You can update your language, profile, and notification settings in the ‘My Account’ screen at any time. If you would like to help translate the site into your language, let us know in the WTS Features branch.",
        "title": "Change Your Settings"
      },
      "invite-your-friends": {
        "text": "THIS ISN’T STARTED YET",
        "title": "Invite Your Friends, Family, and Fans"
      },
      "keeping-track-of-conversations": {
        "text": "THIS ISN’T FINISHED - NEED TO ADD THE ABILITY TO SUBSCRIBE TO A POST\nWhen you make a post, you’ll get a bell notification whenever someone edits it, or leaves a comment. You can also turn on email alerts for updates on the My Account page",
        "title": "Keeping Track of Conversations"
      },
      "share-a-post": {
        "text": "THIS ISN’T STARTED YET",
        "title": "Share a Post"
      },
      "talking-to-another-user": {
        "text": "WTS does not have private messaging, but you can leave someone a message by clicking on their username and creating a new post on their feed.",
        "title": "Talking To Another User"
      },
      "title": "How To",
      "using-hashtags": {
        "text": "THIS ISN’T STARTED AND WE NEED A COMMUNITY DISCUSSION ABOUT IT",
        "title": "Using Hashtags"
      }
    },
    "intro-paragraph": "Welcome to Wikitribune Social (or WTS as we like to call it)! Below is the most comprehensive guide to using our website. If you’ve found a bug, or would like to suggest an improvement - please make a post in the Bugs or WTS Features branch.",
    "latest-announcements": "Check here for the latest announcements from the official WTS team.",
    "more-info": {
      "comprehensive-list-of-branches-about-wts": {
        "text": "SAVING UNTIL SUBWIKIS ARE IMPORTED - THEN WE SHOULD COLLABORATE ON THIS",
        "title": "A Comprehensive List of Branches About WT.Social"
      },
      "creating-new-fact-check": {
        "text": "SHOULD DISCUSS",
        "title": "Six Steps to Creating a New Fact Check on WT.Social"
      },
      "difference-between-collaborative": {
        "text": "Posts to WTS are ‘collaborative’ by default. This allows anyone to edit your post. It sounds scary, but it really isn’t! A transparent ‘revision history’ is on the right hand side, which shows what each person wrote.\n\nCommunity members usually reserve editing for minor improvements to posts, or alerting other users when something is wrong. We strongly encourage you to also get stuck in.\n\nNot every post needs to be collaborative. For example, maybe you want to post a personal picture, or your opinion on the latest book/movie. For these posts, you can turn off collaboration. Community and staff administrators will still be able to edit them, but this is mostly reserved for rule-breaking posts.",
        "title": "The Difference Between a Collaborative and Individual Post"
      },
      "title": "More Info",
      "who-runs-this-place": {
        "text": "On the day to day level? People like you. For more information about staff, please see the ‘About Us’ page.",
        "title": "Who Runs This Place?"
      }
    },
    "sections": [
      {
        "items": [
          {
            "text": "Although you can see some similarities in our design, the social aspect of Trust Cafe is a lot different than what you might be used to. The website is dedicated to sharing trustworthy content and creating substantive discussions. You won’t see a lot of minion memes or other low quality content here.<br/><br/>We also operate on a peer-to-peer moderation system. That means you are empowered to make this a great place for all. If you see spam, misinformation, or hate speech, let people know by using the trust rating system.<br/><br/>Staff can and will step in if necessary, but the community (including community administrators) are the heart of the website.",
            "title": "What makes Trust Cafe different from Facebook and Twitter?"
          },
          {
            "text": "A good quality Trust Cafe post should have accurate and up-to-date information, provide sources for any claims made, and be written in a clear, concise, and easy-to-understand manner. Additionally, the post should be respectful of other viewpoints and should not contain any offensive language or content.",
            "title": "What makes a ‘quality post’?"
          },
          {
            "text": "The trust system is a great way for users to rate other users as trustworthy when they post good quality content. It helps create an environment of accountability and encourages people to be more mindful about the content that they are posting. Additionally, it can also help identify untrustworthy people who may be intentionally posting spam or inappropriate material.",
            "title": "Which users are trustworthy?"
          },
          {
            "text": "You can edit your own posts on Trust Cafe, like on any social media website. Unlike other platforms, users can edit each other’s posts to correct mistakes, reword headlines, and flag misinformation. In this way Trust Cafe is like a wiki: everyone can help curate quality content.",
            "title": "Editing A Post"
          },
          {
            "text": "If you see a comment that shouldn’t be there, such as hate speech or advertisements, you can hide the post from view for yourself and everyone else. This is one of the ways the community helps keep Trust Cafe tidy. If a comment is hidden by mistake, it can be unhidden just as easily.<br/><br/>When a user hides or unhides a comment, the change is logged in the Recent Changes list so that everyone can see. In addition to encouraging action on bad actors with hidden comments, this transparency measure also prevents clandestine abuse of the system.",
            "title": "Hiding Comments",
            "under_construction": true
          }
        ],
        "title": "INTRODUCTION"
      },
      {
        "items": [
          {
            "text": "You’ll notice that your home feed has two tabs: ‘Your Feed’ shows you every post from people or branches you are following, and ‘For You’ shows you all the latest posts, although as the trust network develops, new accounts and potential spammers will be displayed below trusted community members.",
            "title": "About Your Feed"
          },
          {
            "text": "A ‘space’ is a place to post content about a given topic, like subreddits or Wikipedia Projects. Trust Cafe has spaces for everything from US Politics to Puzzles from Around The World.<br/><br/><a href='branches/alphabetical'>You can browse all Trust Cafe spaces here.</a>",
            "title": "About Spaces"
          },
          {
            "text": "Trust Cafe believes in being as transparent as possible. If you click on <a href='recentchanges'>‘Recent Changes’</a> you can see every action taken on the website. This helps keep everyone accountable and is a great way to look into how moderation works on the platform.",
            "title": "About Recent Changes"
          },
          {
            "text": "On the day-to-day level? People like you!<br/><br/>For information about our staff team, please see <a href='About'>the ‘About Us’ page.</a>",
            "title": "Who Runs This Place?"
          }
        ],
        "title": "ABOUT"
      },
      {
        "items": [
          {
            "text": "You can update your language, notification settings, and other account details in <a href='myaccount'>the ‘My Account’ page</a> at any time. If you would like to help translate the site into your language, let us know in <a href='https://discord.gg/ftyB5yzwH5'>the official Trust Cafe Discord server</a>.",
            "title": "Change Your Settings"
          },
          {
            "text": "You can update your language, notification settings, and other account details in <a href='myaccount'>the ‘My Account’ page</a> at any time. If you would like to help translate the site into your language, let us know in <a href='https://discord.gg/ftyB5yzwH5'>the official Trust Cafe Discord server</a>.",
            "title": "Talk to Another User"
          },
          {
            "text": "UNDER CONSTRUCTION",
            "title": "Invite Your Friends, Family, and Fans",
            "under_construction": true
          },
          {
            "text": "This should explain both on-platform and off-platform sharing since both are important to growth......... To share a Trust Cafe post to your followers on other social media sites, use the share button [add image below] to share directly to Facebook or Twitter, or copy the link and paste it into an email or other message.",
            "title": "Share a Post",
            "under_construction": true
          },
          {
            "text": "THIS ISN’T FINISHED - NEED TO ADD THE ABILITY TO SUBSCRIBE TO A POST........When you make a post, you’ll get a bell notification whenever someone edits it, or leaves a comment. You can also turn on email alerts for updates on <a href='myaccount'>the ‘My Account’ page</a>.",
            "title": "Keep Track of Conversations",
            "under_construction": true
          },
          {
            "text": "THIS ISN’T STARTED AND WE NEED A COMMUNITY DISCUSSION ABOUT IT",
            "title": "Use Hashtags",
            "under_construction": true
          }
        ],
        "title": "HOW TO"
      },
      {
        "items": [
          {
            "text": "Posts to Trust Cafe are collaborative, which allows anyone to edit your post. It sounds scary, but it really isn’t! A transparent ‘revision history’ is on the right hand side, which shows what each person wrote and when they wrote it.<br/><br/>Community members usually reserve editing for minor improvements to posts, or alerting other users when something is wrong. We strongly encourage you to follow these practices.",
            "title": "Collaborative Editing"
          },
          {
            "text": "SAVING UNTIL SUBWIKIS ARE IMPORTED - THEN WE SHOULD COLLABORATE ON THIS. This section will need different links for different languages since the spaces are separate.",
            "title": "Spaces About Trust Cafe",
            "under_construction": true
          },
          {
            "text": "UNDER CONSTRUCTION: add links to Self Promotion Policy, NSFW Policy, Names and Pseudonyms Policy",
            "title": "Terms of Service",
            "under_construction": true
          }
        ],
        "title": "MORE DETAILS"
      }
    ],
    "terms-of-service": {
      "names-and-pseudonyms": "Names and Pseudonyms",
      "nsfw-policy": "NSFW Policy",
      "self-promotion-policy": "Self Promotion Policy",
      "title": "TERMS OF SERVICE"
    },
    "the-basics": {
      "different-from-facebook": {
        "text": "Although you can see some similarities in our design, the social aspect of WTS is a lot different than what you might be used to. The website is mostly dedicated to sharing news and creating substantive discussions. You won’t see a lot of minion memes or other low quality content here.\n\nWe also operate on a peer-to-peer moderation system. That means you are empowered to make this a great place for all. If you see a comment you don’t like, hide it! If you see spam, misinformation, or hate speech, let people know.\n\n Staff can and will step in if necessary, but the community (including community administrators) are the heart of the website.",
        "title": "What makes WTS different from Facebook?"
      },
      "editing-a-post": {
        "imgcaption": "The Edit Button",
        "subitem": "What’s a collaborative post?",
        "text": "Yes, you can edit collaborative posts! By clicking on the edit icon, you can collaborate with other users on fact checks, fix headlines, or help fight against spam, misinformation, and hate speech. If you want to try it out, give this post an update.",
        "title": "Editing A Post"
      },
      "hiding-comments": {
        "text": "UNDER CONSTRUCTION",
        "title": "Hiding Comments"
      },
      "quality-post": {
        "text": "On WTS, not every post has to be 'quality'. It's great to get people's holiday snaps and jokes. But in the interest of generating meaningful discourse, try to post non-inflammatory articles from trustworthy sources.\n\nIf you do find something interesting outside of that scope that you think needs debunking, add it with the hashtag #factcheck to let people know.",
        "title": "What makes a ‘quality post’?"
      },
      "title": "The Basics"
    },
    "title": "A Beginner's Guide to WT.Social",
    "using-the-website": {
      "about-branches": {
        "text": "A branch is a place to post content about a given topic, like subreddits or Wikipedia Projects. WT.Social has branches on everything from US Politics to Puzzles from Around The World.\n\nYou can browse branches by going to THIS IS NOT STARTED YET.",
        "title": "About Branches"
      },
      "about-recent-changes": {
        "text": "RECENT CHANGES ISN’T FINISHED SO MORE TO ADD\nWTS believes in being as transparent as possible. If you click on ‘Recent Changes’ you can see every action taken on the website. This helps keep everyone accountable and is a great way to look into how moderation works on the platform.",
        "title": "About Recent Changes"
      },
      "about-your-feed": {
        "text": "You’ll notice that your feed has two tabs. ‘My Feed’ shows you every post from people or branches you are following.\n\nDiscover shows you all the latest posts, although new accounts and potential spammers will be displayed below trusted community members.",
        "title": "About Your Feed"
      },
      "title": "Using The Website"
    },
    "visual-guide": "Visual learner? Check out the Visual Guide to WTS here."
  },
  "Block": {
    "alert-text-blocking-admin-not-allowed": "Blocking an admin is prevented to avoid abuse of the blocking system. If you have a problem with an admin, please contact us.",
    "alert-title-blocking-admin-not-allowed": "Sorry, we can't let you do that",
    "btn-block-this-user": "Block this user",
    "btn-show-anyway": "Show me anyway",
    "btn-unblock": "Unblock",
    "btn-unblock-this-user": "Unblock this user",
    "click-manage-blocks": "Click here to manage your blocks",
    "heading-reason": "Your reason for blocking this user",
    "no-blocked-users": "You have not blocked any users",
    "reason-textarea-label": "Enter your reason for blocking this user (optional)",
    "resaon-explainer": "Blocking this user will hide their content from you.  You can enter an optional reason which will remain a private to you and our staff.",
    "this-has-been-blocked-by": "You’re unable to view this because this person limits who can view their content.",
    "this-user-has-blocked-you": "This user has blocked you",
    "title-manage-blocks": "Review or unblock users you have blocked",
    "unblock-explainer": "You are about to unblock this user",
    "you-have-blocked-this-content": "This has been blocked by you"
  },
  "Branch": {
    "describe-branch": "Beschreibe dieses Branch",
    "member": "keine Mitglieder | ein Mitglied | {n} Mitglieder",
    "post": "keine Beiträge | ein Beitrag | {n} Beiträge"
  },
  "Contact": {
    "contact-us": "Kontaktiere uns",
    "contact-us-paragraph": "Platzhalter für den Kontaktiere uns - Absatz",
    "discord": "Alternatively, chat with us on Discord",
    "email": "Deine E-Mail-Adresse",
    "message": "Nachricht",
    "name": "Name",
    "send": "Senden",
    "subject": "Betreff",
    "success": "Danke, dass du Kontakt mit uns aufnimmst"
  },
  "EditBox": {
    "identifier": "identifikator"
  },
  "Emails": {
    "article-updates": "Artikel-Aktualisierungen",
    "new-comment": "Neuer Kommentar",
    "new-comment-responding-to something-I-have-done": "Neuer Kommentar, der auf etwas antwortet, das ich gemacht habe",
    "new-followers": "Neue Follower",
    "new-message-to-me-on-my-profile": "Neue Nachricht an mich in meinem Profil",
    "new-messages": "Neue Benachrichtigungen",
    "preferences": "E-Mail-Einstellungen",
    "update-to-an-article-I-have-created-or-edited": "Aktualisierung eines Artikels, den ich erstellt oder bearbeitet habe",
    "when-a-user-follows-me": "Wenn mir ein Nutzer folgt",
    "when-would-you-us-like-to-email-you": "Wann möchtest du, dass wir dir eine E-Mail senden?"
  },
  "Errors": {
    "email-confirmation-error": "There was an error confirming your address",
    "no-identifier": "Kein Identifikator",
    "no-settings": "Keine Einstellungen"
  },
  "FAQS": {
    "is-translated": "",
    "questions": [
      {
        "answer": "No. Emphatically not. WT.Social's mission is to provide a non-toxic social media platform, which cannot happen in an environment where anything goes. We take a proactive stance against hate speech, harassment, and misinformation.",
        "title": "Is WT.Social a 'Free Speech Platform'?"
      },
      {
        "answer": "No. Our guidelines are politically agnostic. The political leanings of users are not a consideration when making moderation decisions. What we want to encourage is <strong>reasoned-discourse</strong> among people who may have many disagreements.  Any community member who can refrain from hate speech, harassment, and misinformation is welcome. Having said that, it should (but unfortunately does not) go without saying that Nazis and other genocidally-inclined folks are not welcome here.",
        "title": "Is WT.Social A Left/Right-Wing Platform?"
      },
      {
        "answer": "Exactly what it sounds like. Although staff members can and will step in to remove users violating our guidelines, and to shield users from the worst excesses of the internet, the everyday moderation of the platform can and should be handled by our users.<br/><br/>Why? Because top-down moderation (or worse, AI-driven moderation) does not work. Facebook moderation has created an entire <a href='https://www.irishtimes.com/business/technology/life-as-a-facebook-moderator-people-are-awful-this-is-what-my-job-has-taught-me-1.4184711'>class of employees with PTSD</a> with the inability to act when they see patently harmful content.<br/><br/>Algorithmic moderation often creates policies which reinforce existing social biases and can <a href='https://www.washingtonpost.com/technology/2021/11/21/facebook-algorithm-biased-race/'>promote racism</a>. Social media companies reliant solely on ad-driven revenue <a href='https://www.forbes.com/sites/petersuciu/2021/08/02/spotting-misinformation-on-social-media-is-increasingly-challenging'>allow misinformation to spread</a> for the sake of engagement and clicks. And it's not scalable. AI <a href='https://www.digitalinformationworld.com/2021/02/ai-content-moderation-systems-are.html'>cannot currently keep up</a> with the ever-changing nature of human behavior, and even tech giants cannot afford to hire enough human moderators to police their platforms.<br/><br/>WT.Social allows users to edit posts, and hide comments. They can directly combat spam, request and start collaborative fact checks, and otherwise shape the platform into what they want it to be. It's a radical idea, but we firmly believe it's the future.",
        "title": "What's Peer-to-Peer Moderation?"
      },
      {
        "answer": "We provide a link on sign-up allowing you to invite people to follow you on WT.Social. The url is <code>https://wt.social/YOUR-USERNAME-HERE/followme</code>",
        "title": "How Can I Bring My Followers To WT.Social?"
      },
      {
        "answer": "Users like you. We have not taken VC money, nor do we allow advertisers on our platform. We rely on the generosity of our community to keep the lights on. If you would like to help, please consider making a contribution <a href='https://contribute.wt.social/'>here</a>.",
        "title": "Who Funds WT.Social?"
      },
      {
        "answer": "You sure can! So long as you follow our Self-Promotion Guidelines as set out <a href='https://wt.social/self-promotion'>here</a>.",
        "title": "Can I Promote My Blog/Podcast/Business Here?"
      },
      {
        "answer": "WT.Social began as an attempt to create user-driven news content. To that end, we named ourselves WikiTribune (as in <a href='https://dictionary.cambridge.org/dictionary/english/tribune'>newspaper</a>, not the Roman forum). Although there was interest in the idea, there were too many barriers to make a flourishing platform. In light of this, we pivoted to creating value in the social media space. WikiTribune was shortened to WT.",
        "title": "Why Is It Called Wt.Social?"
      },
      {
        "answer": "Not at the present time, as we haven't seen any persuasive use case for the blockchain for our actual needs.  We are open to financial support in pretty much any currency, including cryptocurrency, though!",
        "title": "Are You Open To Being On The Blockchain?"
      }
    ]
  },
  "Following": {
    "following-nobody": "Es gibt niemanden, dem du folgst",
    "users-following": "Leute, denen du folgst"
  },
  "General": {
    "404": "Diese Seite wurde wahrscheinlich von irgendwelchen nervigen Borg assimiliert und ist nicht mehr 'hier'.",
    "FAQS": "FAQS",
    "about": "Über WTS2",
    "about-header": "WTS2",
    "about-paragraph": "Platzhalter",
    "all": "All",
    "all-branches": "Alle Branches",
    "all-posts": "Alle Beiträge",
    "are-you-sure-delete-key-pair": "Are you sure you want to delete this key pair?",
    "back": "Zurück",
    "branch-for-new-post": "Ein Branch für deinen neuen Beitrag",
    "branches": "Branches",
    "cancel": "Abbrechen",
    "cant-log-in-right-now": "Entschuldige bitte, wir können dich im Moment nicht anmelden",
    "changes": "Änderungen",
    "choose-scopes": "Choose which scopes you want to grant your client",
    "choose-your-language": "Wähle deine Sprache aus",
    "close": "Close",
    "comment": "Dein Kommentar",
    "comment-fetch-error": "Hier gibt es keine Kommentare",
    "comment-placeholder": "Schreibe einen Kommentar",
    "comment-text": "Comment Text",
    "commented-on-a-post": "Commented on a post",
    "confirm-password": "Passwort bestätigen",
    "contact": "Kontaktiere uns",
    "continue-reading": "Weiterlesen",
    "create": "Erstellen",
    "create-a-branch": "Erstelle ein Branch",
    "create-new-client-credentials-key-pair": "Create new client credentials key pair",
    "created-a": "erstellte ein",
    "created-new-branch": "Erstelle ein neues Benutzerprofil",
    "created-new-comment": "Schrieb einen neuen Kommentar",
    "created-new-post": "Erstellte einen neuen Post",
    "created-new-userprofile": "Erstelle ein neues Benutzerprofil",
    "created-new-vote": "erstellte eine neue Abstimmung",
    "dark-mode": "Dark Mode",
    "describe-your-new-branch": "Beschreibe dein neuen Branch",
    "discover": "Entdecke",
    "edit": "Bearbeiten",
    "edit-attached-link": "Bearbeite den beigefügten Link",
    "edit-copy": "Kopie bearbeiten",
    "edit-this-post": "Bearbeite diesen Beitrag",
    "editing": "Bearbeiten",
    "email-address": "E-Mail-Adresse",
    "error-loading-link": "Beim Laden dieses Links ist ein Fehler aufgetreten",
    "first-name": "Vorname",
    "follow": "Folgen",
    "followed-you": "folgt dir",
    "following": "Du folgst",
    "for-you": "For you (GERMAN)",
    "forgot-password": "Passwort vergessen?",
    "forgotten-password": "Vergessenes Passwort",
    "guest": "Guest",
    "home": "Startseite",
    "is-collaborative": "collaborative post",
    "item-cannot-be-followed": "Folgen ist nicht möglich",
    "last-name": "Nachname",
    "load-more": "Mehr laden",
    "loading-full-data": "Laden der vollständigen Verbindungsdaten",
    "loading-user": "Nutzer laden",
    "login": "Anmelden",
    "login-or-register": "Anmelden oder Registrieren",
    "logout": "Abmelden",
    "make-new-branch": "Neuen Branch erstellen",
    "manage-api-access": "API-Zugriff verwalten",
    "many-comments": "Kommentare",
    "monthly": "Monatlich",
    "must-be-online-to-continue": "You must be online to continue",
    "my-account": "Mein Account",
    "my-payments": "Meine Zahlungen",
    "new-branch-name": "Name des neuen Branches?",
    "new-post-button": "Erstelle einen neuen Beitrag",
    "next": "nächstes",
    "no-user": "Kein Nutzer",
    "none": "None",
    "not-collaborative": "personal post",
    "on": "an",
    "one-comment": "Kommentar",
    "one-moment": "Einen Moment bitte",
    "one-off": "Eins davon",
    "oops-looks-like-youve-entered-the-wrong-login": "Ups! Sieht aus, als hättest du das falsche Login eingegeben",
    "pages": "Seiten",
    "password": "Passwort",
    "password-input-must-match": "Das Passwort muss übereinstimmen",
    "password-recovery": "Passwort-Wiederherstellung",
    "pay-with-debit/credit-card": "Bezahlen mit Bank-/Kreditkarte",
    "pay-with-paypal": "Bezahlen mit Paypal",
    "please-enjoy-your-stay": "Genieße deinen Aufenthalt!",
    "post-placeholder": "Was geht dir durch den Kopf?",
    "post-text": "Post Text",
    "posted-in": "Gepostet in",
    "posted-in-their-branch": "posted in their branch",
    "posted-in-their-branch-at": "posted in their branch at",
    "posted-to": "gepostet nach",
    "posted-to-their-feed": "Im eigenen Feed gepostet",
    "posted-to-their-feed-at": "Im eigenen Feed gepostet am",
    "posts": "Posts",
    "posts-by-id": "Posts nach ID (Test)",
    "profile": "Profil",
    "profile-url": "Profil-URL",
    "random-box": "Zufallsbox",
    "read-all-posts": "Du hast alle Beiträge, die es hier gibt, gelesen!",
    "recent-changes": "Letzte Änderungen",
    "recommended-branches": "Empfohlene Branches",
    "refresh": "Aktualisieren",
    "register": "Registrieren",
    "remove": " Entfernen",
    "replied": "hat geantwortet",
    "replied-at": "Geantwortet am",
    "reply": "Antworten",
    "required": "Pflichtfeld",
    "restart": "Neustart",
    "retry": "Neuer Versuch",
    "revisions": "Überarbeitungen",
    "save": "Speichern",
    "settings": "Einstellungen",
    "subscribe": "Abonnieren",
    "take-note": "Take note of the following details. If you lose them you'll need to create a new secret.",
    "testing": "Ich teste",
    "there-are-no-changes-to-show": "Hier gibt es keine Änderungen",
    "there-arent-any-posts-here": "Hier gibt noch keine Beiträge",
    "there-is-a-problem-with-your-account": "There is a problem with your account (GERMAN)",
    "this-comment-has-been-archived": "This comment has been archived",
    "trust": "Trust",
    "unfollow": "Nicht mehr folgen",
    "updated-a-branch": "Aktualisierte das Branch",
    "updated-a-comment": "Aktualisiere einen Kommentar",
    "updated-a-post": "Aktualisierte den Beitrag",
    "updated-a-userprofile": "Aktualisiere ein Benutzerprofil",
    "updated-your": " aktualisierte dein",
    "url-is-available": "Diese URL ist verfügbar",
    "url-is-taken": "Diese URL ist bereits vergeben",
    "user-profile": "Benutzerprofil",
    "users": "Nutzern",
    "visit-branch": "Besuche das Branch",
    "welcome": "Willkommen",
    "welcome-to-wts2": "Willkommen bei WTS2",
    "yearly": "Jährlich",
    "you-have-been-disconnected": "You have been disconnected from the internet (GERMAN)",
    "you-have-max-clients": "You have the maximum number of clients",
    "you-have-no-api-clients": "You have no API clients",
    "you-need-to-be-online": "You need to be online to use Wikitribune Social (GERMAN)",
    "your-client-ids": "Your Client ID's (GETMAN)",
    "your-conection-has-been-restored": "Your connection has been restored (GERMAN)",
    "your-feed": "Dein Feed",
    "your-new-creds": "Your new API Client credentials"
  },
  "Monthly": "Monatlich",
  "MyBranches": {
    "browse-branches": "Browse Branches (GERMAN)",
    "my-branches": "Meine Branches",
    "not-following-branches": "You are not currently following any branches.(GERMAN)"
  },
  "Notifications": {
    "action_article_updated": "updated your post",
    "action_comment_reply": "replied to you",
    "action_profile_post": "posted on your profile",
    "action_rank_up": "You were promoted",
    "action_trust_created": "rated you",
    "article-updates": "Article Updates",
    "new-comment": "New Comment",
    "new-comment-responding-to something-I-have-done": "When someone responds to me",
    "new-followers": "New Followers",
    "new-messages": "New Messages",
    "notification-preferences": "Notification Preferences",
    "rank-down": "Rank Down",
    "rank-up": "Rank Up",
    "someone-trusts-me": "When someone new trusts me",
    "someone-trusts-me-more": "When someone increases their trust rating of me",
    "trust-created": "New trust",
    "trust-increased": "Trust Increased",
    "when-a-user-follows-me": "When a user follows me",
    "when-my-rank-decreases": "When I am demoted a rank",
    "when-my-rank-increases": "When I am promoted a rank",
    "when-someone-posts-to-me-directly": "When someone posts to me directly",
    "when-something-i-have-posted-or-edited-is-edited": "When something I have posted or edited is edited further"
  },
  "Password": {
    "change-password": "Passwort ändern",
    "forgotten-password": "Vergessenes Passwort",
    "login-now": "Jetzt anmelden",
    "minimum-characters": "Mindestens 8 Zeichen",
    "password-recovery": "Passwort-Wiederherstellung",
    "password-reset-sentence-part-1": "Wenn du weiterhin Probleme hast, stelle bitte sicher, das du dem vollständigen Link in deiner E-Mail folgst",
    "password-reset-sentence-part-2": "oder versuche",
    "password-reset-sentence-part-3": "das Passwort erneut zurückzusetzen",
    "there-was-a-problem-validating-the-reset-token": "Es gab ein Problem bei der Validierung des Reset-Tokens",
    "your-password-could-not-be-changed-at-this-time": "Dein Passwort kann zur Zeit nicht geändert werden",
    "your-password-has-been-changed": "Dein Passwort wurde geändert"
  },
  "Pay with Paypal": "Bezahlen mit Paypal",
  "Pay with debit/credit card": "Bezahlen mit Bank-/Kreditkarte",
  "PayPal": {
    "new-paypal-contribution": "Neuer Paypal-Beitrag",
    "paypal-thank-you": "Vielen Dank!"
  },
  "Payment": {
    "click-here": "Klicke hier",
    "contributions": "Beiträge",
    "currency": "Währung",
    "error-fetching-schedules": "Beim Abrufen deiner Zahlungspläne ist ein Fehler aufgetreten",
    "fetching-schedules": "Abrufen von Zahlungsplänen",
    "go-back-to-wt-social": "Zurück zu WT.Social",
    "hint-receipt": "Dies ist nur für die Quittung",
    "if-you-would-like-to-make-an-account": "Wenn du einen Account eröffnen möchtest",
    "payment-amount": "Der Zahlungsbetrag",
    "payment-are-you-sure": "Willst du wirklich abbrechen?",
    "payment-cancel-confirm": "Bist du sicher, dass du dieses Abonnement kündigen möchtest?",
    "payment-cancelled": "Abgebrochen",
    "payment-cancelling": "Abbrechen",
    "payment-continue": "Fortfahren",
    "payment-contributions": "Einzahlungen",
    "payment-created": "Erstellt",
    "payment-custom": "Einzahlungsregel",
    "payment-custom-amount": "Benutzerdefinierter Betrag",
    "payment-form-choose-your-plan": "Wähle deinen Plan",
    "payment-form-new-contribution": "Neue Einzahlung",
    "payment-form-next-payment": "Nächste Einzahlung",
    "payment-form-payment": "Einzahlung",
    "payment-form-thank-you": "Danke für deine Zahlung",
    "payment-provider": "Anbieter",
    "payment-status": "Status",
    "payment-subscription": "Regelmäßige Einzahlungen",
    "payment-subscriptions": "Regelmäßige Einzahlung",
    "payment-term": "Term (GERMAN)",
    "user-amount-currency": "Betrag/Wärung",
    "user-fetch-payment-error": "Beim Abrufen deiner Zahlungen ist ein Fehler aufgetreten",
    "user-payment-provider": "Anbieter",
    "your-contribution-wont-go-to-waste": "Ihr Beitrag wird nicht umsonst sein!",
    "your-email-address": "Deine E-Mail-Adresse"
  },
  "Post": {
    "a-branch": "Ein Branch",
    "branch-search": "Branch-Suche",
    "collaborative": "Make this post collaborative",
    "do-you-want-other-users-to-be-able-to-edit-this-post": "Do you want other users to be able to edit this post?",
    "my-profile": "Mein Profil",
    "post": "Post",
    "post-actions": "Post Actions",
    "to-branch": "Poste in das Branch",
    "where": "Wohin möchtest du deinen Beitrag posten?"
  },
  "PostRestrictions": {
    "text": "On Trust Café, users can block other users. When you see that content has been restricted from view, it might be due to another user blocking you from viewing their profile and associated posts and comments.",
    "title": "About Post Restrictions"
  },
  "Profile": {
    "continue-editing": "Bearbeitung fortsetzen",
    "discard-changes": "Änderungen verwerfen",
    "drag-your-image-here": "Ziehe dein Bild hierher",
    "edit-my-profile": "Mein Profil bearbeiten",
    "followers": "Followers",
    "leave-a-message": "Leave a message on My Branch",
    "unsaved-changes": "Deine Änderungen sind noch nicht gespeichert. Bist du sicher, dass du sie verwerfen willst?",
    "uploading-cover-picture": "Hochladen des Titelbildes",
    "uploading-profile-picture": "Hochladen des Profilbildes",
    "your-biography": "Deine Biographie"
  },
  "Recommended": {
    "for-fun": "Unterhaltung",
    "serious-stuff": "Was die Welt bewegt",
    "technology": "Technologie",
    "to-help-build": "Trust Cafe Mitgestalten"
  },
  "RevisionList": {
    "by": "von",
    "confirm-revert": "Bist du sicher, dass du zu dieser Überarbeitung zurückkehren willst?",
    "revert-to": "Rückkehr zu",
    "revision": "Überarbeitung",
    "revisions": "Überarbeitungen",
    "there-are": "Hier gibt es",
    "there-is": "Hier gibt es"
  },
  "Roadmap": {
    "statuses": {
      "awaiting": "In Erwartung",
      "complete": "Komplett",
      "in-progress": "In Arbeit",
      "ongoing": "Laufend",
      "paused": "Pausiert",
      "testing": "Testen"
    },
    "timeline": [
      {
        "desc": "Der erste Schritt zu Jimmys neuer Vision besteht darin, den Nutzern zu ermöglichen, sich gegenseitig zu bewerten.",
        "goal": "Vertrauensbewertung"
      },
      {
        "desc": "Normalerweise als Teil des Blockierens/Löschens eines Kontos verwendet",
        "goal": "Massenhaftes Archivieren der Inhalte eines Nutzers"
      },
      {
        "desc": "Damit wir alle darüber diskutieren können, wie es verwendet wird",
        "goal": "Lässt jeden sehen, wem jemand vertraut und wie sehr"
      },
      {
        "desc": "Das ermöglicht es den Nutzern, ihren Unmut über jemanden auszudrücken",
        "goal": "Ändern der Vertrauensbewertungsliste, sodass sie von -20% bis +100% reicht"
      },
      {
        "desc": "Damit wir alle darüber diskutieren können, wie es verwendet wird",
        "goal": "Lässt jeden sehen, wem ein Benutzer vertraut"
      },
      {
        "desc": "Einfache Tabelle(n) oder Tabellen, die die Top-Nutzer anzeigen",
        "goal": "Lässt jeden sehen, wer auf der Website einen hohen Rang hat"
      },
      {
        "desc": "Implementierung eines ersten äußerst grundlegenden Algorithmus, um den Auffindungsreiter nach Zeit und Qualität zu sortieren",
        "goal": "Vertrauensmechanismus: Ursache und Wirkung"
      },
      {
        "desc": "So können interessante neue Benutzer, die wir (basierend auf Vertrauen) identifizieren, schnell viele Follower bekommen",
        "goal": "Personenvorschläge beim Einstieg"
      },
      {
        "desc": "...",
        "goal": "Ein Post und alle Kommentare komplett löschen"
      },
      {
        "desc": "Damit wir es überprüfen können",
        "goal": "Sehen, wem die Leute folgen und wer ihnen folgt"
      },
      {
        "desc": "Benachrichtige mich per Glocke, wenn jemand auf meinen Beitrag oder meinen Kommentar antwortet oder sie bearbeitet",
        "goal": "Bell-Benachrichtigungen zu Kommentaren"
      },
      {
        "desc": "Bell-Benachrichtigung entfernen, wenn jemand, dem ich folge, etwas veröffentlicht",
        "goal": "Benachrichtigungsbereinigung"
      },
      {
        "desc": "E-Mail-Benachrichtigungen",
        "goal": "E-Mail-Benachrichtigungen bekommen"
      },
      {
        "desc": "Die Standard-E-Mails, aber sie erklären, was für einen höheren Rang getan werden kann",
        "goal": "24- und 72-Stunden-E-Mails für neue Benutzer"
      },
      {
        "desc": "Das Löschen und Zusammenführen von Branches sind Werkzeuge, die wir benötigen werden",
        "goal": "Branch-Moderation"
      },
      {
        "desc": "Ein Ort, an dem Leute Probleme mit dem Inhalt diskutieren und debattieren können",
        "goal": "Moderationszentrum"
      },
      {
        "desc": "Um den Leuten zu helfen, sich zurechtzufinden, werden wir diesen hilfreichen Leitfaden benötigen",
        "goal": "Anfängerleitfaden"
      },
      {
        "desc": "Das wird ein aufregender Tag, aber es gibt einige Dinge, die wir zuerst erledigen müssen.",
        "goal": "Open Source Trust Café"
      },
      {
        "desc": "Ein Feature, das wir in WTS1 haben und das dazu beitragen wird, die Botschaft zu verbreiten",
        "goal": "“Folge mir”-Links"
      },
      {
        "desc": "Eine der am häufigsten gewünschten Funktionen",
        "goal": "Die Möglichkeit, einem Beitrag zu folgen"
      },
      {
        "desc": "Bevor wir zu Trust Café wechseln können, muss dies erledigt werden",
        "goal": "Newsletter-Einstellungen"
      },
      {
        "desc": "Ein Grundfeature von WTS1, das in Trust Café noch fehlt",
        "goal": "Gepinnte Beiträge"
      },
      {
        "desc": "Ein Grundfeature von WTS1, das in Trust Café noch fehlt",
        "goal": "Erneutes Posten"
      },
      {
        "desc": "Ein Grundfeature von WTS1, das in Trust Café noch fehlt",
        "goal": "Nutzer zu Nutzer Blockierung"
      },
      {
        "desc": "Ein Grundfeature von WTS1, das in Trust Café noch fehlt",
        "goal": "Fähigkeit zur Deaktivierung der kollaborativen Bearbeitung"
      },
      {
        "desc": "An diesem Punkt können wir dauerhaft zu Trust Café wechseln",
        "goal": "Start des MVP (Minimum Viable Product)",
        "special": "launch"
      },
      {
        "desc": "z. B. Anzeigen von Zeiten in Ihrer Zeitzone und im lokalen Format",
        "goal": "Regionale Anpassungen"
      },
      {
        "desc": "Wir warten schon lange darauf, Beiträge in verschiedenen Sprachen anzeigen können",
        "goal": "Übersetzung von Beiträgen/Kommentaren/aktuellen Änderungen"
      },
      {
        "desc": "Der Suchalgorithmus für WTS1 ist furchtbar, wir wollen sicherstellen, dass sein Ersatz tatsächlich brauchbar ist",
        "goal": "Suchfunktion"
      },
      {
        "desc": "Das Veröffentlichen von Videos auf Social-Media-Websites ist üblich und sollte etwas sein, das wir unterstützen",
        "goal": "Video-Uploads"
      },
      {
        "desc": "Damit können wir mit der Arbeit an einer mobilen App beginnen oder anderen die Möglichkeit geben, es auszuprobieren.",
        "goal": "OAuth-Autorisierungscode-Flow mit PKCE (Proof Key for Code Exchange)"
      }
    ],
    "title": "Roadmap der Funktionen"
  },
  "Sidebar": {
    "people-i-follow": "People I Follow",
    "people-i-trust": "People I Trust",
    "people-who-follow-me": "People Who Follow Me",
    "people-who-trust-me": "People Who Trust Me",
    "who-i-follow": "Who I Follow",
    "who-i-trust": "Who I Trust"
  },
  "Single": "Einmalige Zahlung",
  "SocialMedia": {
    "first-line": "WT.Social benötigt deine Hilfe",
    "header": "Liebe Unterstützer und Unterstützerinnen,",
    "is-translated": "",
    "paragraph-1": "Die vielen Probleme in der Welt, zu deren Lösung ich mit WikiTribune Social beitragen möchte, sind so drängend wie eh und je. Wir alle sehen der Möglichkeit entgegen, dass Elon Musk Twitter kauft und müssen befürchten, dass er die Redefreiheit zu einer Art radikaler Troll-Zone verkommen lässt. Erinnert euch, er wurde verklagt, weil er jemanden auf Twitter als 'Pädo' bezeichnet hat, er wird Twitter definitiv nicht weniger toxisch machen. Vielleicht holt er Donald Trump zurück und beruft sich dabei lautstark auf die Meinungsfreiheit, es ist jedoch ganz klar, worum es dabei in Wirklichkeit geht, Trump hat Twitter getragen. Er hat Twitter mehr als ein halbes Jahrzehnt auf die Titelseiten aller Zeitungen der Welt gebracht, es ist einfach sehr profitabel für sie, komplett toxisch zu bleiben.",
    "paragraph-2": "WikiTribune beruht auf einem anderen Modell. Sicher, dies Modell mag ein wenig seltsam wirken, aber es ist eines, an das ich glaube, und ich hoffe, dass du darin mit mir übereinstimmst. Es zielt nicht darauf ab, so viele Seitenaufrufe wie möglich zu erzeugen und dabei Suchtverhalten zu fördern und Empörung zu schüren. Dies Modell besteht darin, etwas aufzubauen, das Menschen wir dir wichtig genug ist, um es auf freiwilliger Basis finanziell zu unterstützen. Es ist ein 'Zahle-wenn-du-willst-Modell'.",
    "paragraph-3": "Ich habe schon oft darüber gescherzt, dass es vielleicht kein so großartiges Geschäftsmodell ist, Dinge zu verschenken und darauf zu hoffen, dass sie freiwillig unterstützt werden - das ist es aber, worauf sich meine bisherige Karriere aufbaut.",
    "paragraph-4": "Es führt kein Weg darum herum, dies auszusprechen. Ich habe mich entschieden, kein Risikokapital zu beschaffen, weil ich die volle kreative Kontrolle behalten möchte, um die Vision zu verwirklichen, die ich im Kopf habe. In den vergangenen zwei Jahren habe hauptsächlich ich das Projekt finanziert - aber es übersteigt meine persönlichen Ressourcen.",
    "paragraph-5": "In den letzten Monaten haben wir uns die Codebasis noch einmal vorgenommen und das meiste von Grund auf neu geschrieben, wobei wir alles, was wir bisher gelernt haben, einfließen ließen. Wir haben eine großartige kleine Gemeinschaft, die neue Codebasis wird neue Möglichkeiten enthalten, die Leute bei qualitativ hochwertigen Beiträgen zu unterstützen und zu belohnen (im Unterschied zu allen anderen sozialen Netzwerken, die Leute für virale, süchtig machende Mumpitz-Beiträge belohnen). Wir führen eine komplette Neugestaltung durch, die in ein paar Monaten starten wird. Ich freue mich schon sehr darauf!",
    "paragraph-6": "Aber um fertig zu werden, muss ich noch ein paar Entwickler einstellen. Ich muss etwas PR und Marketing betreiben. Ich muss wirklich anfangen, die Sache voranzutreiben, als einen Neubeginn. Wenn du helfen kannst, zusammen mit den Zehntausenden anderer Unterstützer, dann denke ich, haben wir eine echte Chance, etwas Revolutionäres und Neues auf die Beine zu stellen. Wir werden es nicht wissen, wenn wir es nicht weiterhin versuchen.",
    "paragraph-7": "Ich glaube, dass es eine echte Möglichkeit gibt, den toxischen sozialen Medien den Garaus zu machen, indem wir eine bessere Alternative anbieten. Ich hoffe, du kannst dabei helfen.",
    "second-header": "Uns mangelt es ganz erheblich an finanziellen Mitteln",
    "sign-off": "Jimmy Wales"
  },
  "Stripe": {
    "amount": "Betrag",
    "cancel": "Abbrechen",
    "closed": "Geschlossen",
    "date": "Datum",
    "description": "Beschreibung",
    "download": "Download",
    "due": "Der Anteil",
    "fetch-invoice-error": "Ups - Es ist ein Fehler beim Abrufen deiner Rechnungsdetails aufgetreten",
    "fetch-payment-error": "Ups - Es ist ein Fehler beim Abruf deiner Zahlungsdetails aufgetreten",
    "fetch-subscriptions-error": "Ups - Es ist ein Fehler beim Abrufen deiner Abonnements aufgetreten",
    "fetching-invoices": "Rechnungen abrufen",
    "fetching-payments": "Zahlungen abrufen",
    "fetching-subscriptions": "Abonnements abrufen",
    "form-load-error": "Bei der Anzeige des Zahlungsformulars ist ein Fehler aufgetreten",
    "invoice": "Berechnen",
    "no-subscriptions": "Du hast keine aktiven Abonnements",
    "paid": "Bezahlt",
    "pay-now": "Jetzt bezahlen",
    "payment": "Zahlung",
    "pending": "Ausstehend",
    "status": "Stand",
    "thank-you": "Deine Zahlung ist eingegangen. Vielen Dank!"
  },
  "Support": {
    "Elon-6-10-22": {
      "is-translated": "",
      "paragraph-1": "Du musst nicht bezahlen - hier ist der Grund, warum ich dich trotzdem bitte, es zu tun!",
      "paragraph-2": "Es ist nur eine Frage der Zeit, bis Elon Musk seine Drohung wahr macht, Donald Trump wieder aufzunehmen und so viel Missbrauch und Desinformation wie rechtlich möglich zuzulassen.",
      "paragraph-3": "Wenn du glaubst, dass dies traurige Zukunftsaussichten für die Welt sind, hilf mir bitte, indem du eine kleine monatliche oder jährliche Spende einrichtest - und indem du hilfst, die Nachricht zu verbreiten.  Wir müssen die Software verbessern, und ich möchte dies ohne den Druck von Investoren tun, Anzeigen und Algorithmen zu akzeptieren, die auf Sucht abzielen."
    },
    "bullet-point-1": "Den Kampf gegen die demokratiezersetzende Tücke der sozialen Medien",
    "bullet-point-2": "Eine durchdachte und kollaborative Plattform für soziale Medien",
    "bullet-point-3": "Eine Website, die von hochwertigen Inhalten und nicht von Empörung bestimmt wird",
    "bullet-point-4": "Durchdachtes Design und ein Schritt weg von der dopamingesteuerten sozialen Sucht",
    "list-preface": "Indem du uns unterstützt, unterstützt du:",
    "list-suffix": "Wir danken dir für alles, was du bereit bist, für diese Bestrebungen aufzubringen.\n\nJimmy Wales",
    "no-thank-you": "Nein danke, ich möchte noch nicht zahlen",
    "paragraph-1": "Vielen Dank, dass du dich entschieden hast, einen finanziellen Beitrag zur Zukunft von WT.Social zu leisten.\nDie Unterstützung von Menschen wie dir ist unverzichtbar, denn wir arbeiten daran, unseren Service zu\nverbessern und eine gesündere Internetlandschaft zu schaffen.",
    "paragraph-2": "Mit deiner Unterstützung werden wir in der Lage sein, mehr in die Entwicklung zu investieren und\nunsere neue Website so bald wie möglich zu starten und unsere Plattform weiter bekannt zu machen.",
    "patron-link": "Erfahre noch heute mehr",
    "patron-link-preamble": "Wenn du uns auf einer höheren Ebene unterstützen möchtest, kannst du dich uns als Mäzen*in anschließen."
  },
  "There are no changes to show": "Hier gibt es keine Änderungen",
  "Time": {
    "ago": "vor {time}",
    "day": "keine Tage | ein Tag | {n} Tage",
    "fetched-in-time-from-place": "Wird innerhalb von {time} Sekunden geladen von: {source}",
    "hour": "keine Stunden | eine Stunde | {n} Stunden",
    "minute": "keine Minuten | eine Minute | {n} Minuten",
    "month": "keine Monate | ein Monat | {n} Monate",
    "second": "keine Sekunden | eine Sekunde | {n} Sekunden",
    "year": "keine Jahre | ein Jahr | {n} Jahre"
  },
  "Trust": {
    "0": "Diesen Nutzer kenne ich gar nicht",
    "1": "Hmm",
    "2": "Vielleicht",
    "3": "Ist Okay",
    "4": "Großartig",
    "5": "Dieser Nutzer genießt mein volles Vertrauen",
    "no-users-have-rated-user": "No users have rated {user}",
    "people-i-trust": "People I trust",
    "people-who-trust-me": "People who trust me",
    "rated-by-this-user": "Rated by this user",
    "ratings-by-this-user": "Ratings by this user",
    "ratings-of-this-user": "Ratings of this user",
    "set-trust-level": "Gib diesem Nutzer Vertrauenspunkte",
    "user-has-not-rated-any-users": "{user} has not rated any users",
    "user-rated-user2-x": "rated {user2} <strong>{trustLevel}%</strong>",
    "user-was-rated-x-by-user2": "was rated <strong>{trustLevel}%</strong> by {user2}",
    "users-rated-by": "Users rated by",
    "users-who-rated": "Users who rated",
    "you": "Das bist du",
    "you-rated": "So hast du diesen Nutzer bewertet:"
  },
  "TrustLevels": {
    "intro": "<b>Note: This is a draft document of ideas - we are seeking feedback and clarifying questions!</b><br/><br/>At Trust Cafe, trusted content is king. A user’s trust level influences how and where their content is visible to others. It also affects how much weight their votes carry, and can confer some additional permissions at higher levels. When a user is promoted (say from Bronze to Silver) their votes will retroactively count for more, thus automatically moving up the people beneath them.<br/><br/>Below is a quick (but not fully comprehensive) overview of each level of trust.",
    "levels": [
      {
        "description": "This is for new users and helps ensure that spammers or other bad actors don’t enter the wider trust ecosystem. After a brief period of time or sufficient constructive contributions, a user will be promoted from this rank.",
        "name": "Newbie/Guest",
        "unlocked": "None",
        "weight": "0"
      },
      {
        "description": "Users have shown they are not malicious actors and have now moved one level up to where they can enter the trust ecosystem.",
        "name": "Citizen",
        "unlocked": "Other users can vote to move you up the trust system",
        "weight": "0"
      },
      {
        "description": "Users have been voted trustworthy by enough members of the community that they are now able to give out trust points. This level is also the default for people who have joined the Trust Cafe membership club(?).",
        "name": "Bronze",
        "unlocked": "The ability to grant trust points to another user",
        "weight": "1"
      },
      {
        "description": "Users have been active or prominent enough on the website to gain a good level of trust. This is where we would expect the average active community member to be.",
        "name": "Silver",
        "unlocked": "The ability to create branches",
        "weight": "2"
      },
      {
        "description": "To reach this level, a user will have had to accrue 180 trust points. Users at gold level will have some markings on their account to delineate them from lower trust levels.",
        "name": "Gold",
        "unlocked": "Community administration tools",
        "weight": "4"
      },
      {
        "description": "A user will have accrued 1620 trust points, which we do not expect anyone to reach for quite some time. This is exclusively for power users or exceptionally trustworthy members of the community.",
        "name": "Platinum",
        "unlocked": "Zoom party (yes, really)",
        "weight": "8"
      },
      {
        "description": "See platinum. Just…moreso",
        "name": "Diamond",
        "unlocked": "The ability to instantly promote accounts to Bronze level",
        "weight": "16"
      },
      {
        "description": "Like platinum just (literally) exponentially moreso.",
        "name": "Double Diamond",
        "unlocked": "The ability to instantly promote accounts to Silver level",
        "weight": "32"
      },
      {
        "description": "Jimmy. It’s just Jimmy.",
        "name": "Grand Poobah",
        "unlocked": "The ability to be Jimmy. If you unlock this, I think it officially qualifies as identity theft.",
        "weight": "64"
      }
    ],
    "title": "Trust Cafe Ranking System",
    "unlocked": "Unlocked",
    "vote_weight": "Vote Weight"
  },
  "Userprofile": {
    "contributions": "Contributions",
    "everything": "Everything",
    "my-branch": "My Branch",
    "posts": "Posts"
  },
  "Welcome": {
    "beginners-guide": "Ausführlicher Leitfaden für Anfänger",
    "branches": "Branches, denen du folgen kannst:",
    "choose-theme": "Wähle deinen Hintergrund",
    "click-to-select-pic": "Wähle ein Profilbild aus",
    "dive-in": "Tauche ein in die Welt von WT.Social",
    "finish": "Erste Schritte beenden",
    "get-you-started": "Danke, dass du dich für WikiTribune Social 2.0 angemeldet hast. Hier sind ein paar Dinge, die dir den Einstieg erleichtern",
    "profile-picture": "Wähle ein Profilbild!",
    "skip-onboarding": "Erste Schritte überspringen"
  },
  "_COMMENT": "THESE ARE ALL HERE INSTEAD OF IN A SECTION BECAUSE WE NEED TO INTERPRET THE STRINGS IN RECENT CHANGES - RECENT CHANGES DESPERATELY NEEDS REFACTORING BUT UNTIL SUCH A POINT AS WE'VE DONE THAT THESE HAVE TO LIVE OUTSIDE OF A SECTION",
  "archived a post": "archivierte einen Beitrag",
  "branchCount": "Anzahl der Branches",
  "commentCount": "Anzahl der Kommentare",
  "created new branch": "erstelle ein neues Branch",
  "created new comment": "schrieb einen Kommentar",
  "created new post": "erstellte einen neuen Beitrag",
  "created new userprofile": "erstellte ein Benutzerprofil",
  "created new vote": "erstellte eine neue Abstimmung",
  "language": "Deutsch",
  "okay": "Okay",
  "postCount": "Anzahl der Posts",
  "profileAge": "Bestehen des Profils",
  "testing": "Ich teste",
  "totalActions": "Alle Aktionen",
  "totalFollowers": "Alle Follower",
  "totalProfilePosts": "Alle Profilbeiträge",
  "updated a branch": "aktualisiere das Branch",
  "updated a comment": "aktualisierte einen Kommentar",
  "updated a post": "aktualisiere den Beitrag",
  "updated a userprofile": "aktualisierte ein Benutzerprofil"
}