{
  "currencies": [
    {
      "code": "AUD",
      "name": "Australian dollar",
      "rate": 1.46,
      "symbol": "$",
      "amounts": {
        "oneoff": [65, 130, 230, 500],
        "monthly": [10, 20, 30, 40],
        "annual": [110, 220, 450, 900]
      },
      "countries": [
        { "alpha-2": "AQ", "alpha-3": "ATA" },
        { "alpha-2": "AU", "alpha-3": "AUS" },
        { "alpha-2": "CX", "alpha-3": "CXR" },
        { "alpha-2": "CC", "alpha-3": "CCK" },
        { "alpha-2": "HM", "alpha-3": "HMD" },
        { "alpha-2": "KI", "alpha-3": "KIR" },
        { "alpha-2": "NR", "alpha-3": "NRU" },
        { "alpha-2": "NF", "alpha-3": "NFK" },
        { "alpha-2": "TV", "alpha-3": "TUV" }
      ]
    },

    {
      "code": "CAD",
      "name": "Canadian dollar",
      "rate": 1.32,
      "symbol": "$",
      "amounts": {
        "oneoff": [60, 120, 200, 400],
        "monthly": [10, 20, 30, 35],
        "annual": [110, 200, 400, 810]
      },
      "countries": [{ "alpha-2": "CA", "alpha-3": "CAN" }]
    },

    {
      "code": "EUR",
      "name": "Euro",
      "rate": 0.91,
      "amounts": {
        "oneoff": [40, 80, 160, 350],
        "monthly": [7, 14, 20, 25],
        "annual": [70, 140, 280, 560]
      },
      "symbol": "€",
      "countries": [
        { "alpha-2": "AX", "alpha-3": "ALA" },
        { "alpha-2": "AD", "alpha-3": "AND" },
        { "alpha-2": "AT", "alpha-3": "AUT" },
        { "alpha-2": "BE", "alpha-3": "BEL" },
        { "alpha-2": "CY", "alpha-3": "CYP" },
        { "alpha-2": "EE", "alpha-3": "EST" },
        { "alpha-2": "FI", "alpha-3": "FIN" },
        { "alpha-2": "FR", "alpha-3": "FRA" },
        { "alpha-2": "GF", "alpha-3": "GUF" },
        { "alpha-2": "TF", "alpha-3": "ATF" },
        { "alpha-2": "DE", "alpha-3": "DEU" },
        { "alpha-2": "GR", "alpha-3": "GRC" },
        { "alpha-2": "GP", "alpha-3": "GLP" },
        { "alpha-2": "VA", "alpha-3": "VAT" },
        { "alpha-2": "IE", "alpha-3": "IRL" },
        { "alpha-2": "IT", "alpha-3": "ITA" },
        { "alpha-2": "LV", "alpha-3": "LVA" },
        { "alpha-2": "LT", "alpha-3": "LTU" },
        { "alpha-2": "LU", "alpha-3": "LUX" },
        { "alpha-2": "MT", "alpha-3": "MLT" },
        { "alpha-2": "MQ", "alpha-3": "MTQ" },
        { "alpha-2": "YT", "alpha-3": "MYT" },
        { "alpha-2": "MC", "alpha-3": "MCO" },
        { "alpha-2": "ME", "alpha-3": "MNE" },
        { "alpha-2": "NL", "alpha-3": "NLD" },
        { "alpha-2": "PT", "alpha-3": "PRT" },
        { "alpha-2": "XK", "alpha-3": "KOS" },
        { "alpha-2": "RE", "alpha-3": "REU" },
        { "alpha-2": "BL", "alpha-3": "BLM" },
        { "alpha-2": "MF", "alpha-3": "MAF" },
        { "alpha-2": "PM", "alpha-3": "SPM" },
        { "alpha-2": "SM", "alpha-3": "SMR" },
        { "alpha-2": "SK", "alpha-3": "SVK" },
        { "alpha-2": "SI", "alpha-3": "SVN" },
        { "alpha-2": "ES", "alpha-3": "ESP" }
      ]
    },

    {
      "code": "GBP",
      "name": "British pound",
      "rate": 0.78,
      "symbol": "£",
      "amounts": {
        "oneoff": [35, 70, 140, 300],
        "monthly": [6, 12, 16, 20],
        "annual": [60, 120, 240, 480]
      },
      "countries": [
        { "alpha-2": "GG", "alpha-3": "GGY" },
        { "alpha-2": "IM", "alpha-3": "IMN" },
        { "alpha-2": "JE", "alpha-3": "JEY" },
        { "alpha-2": "GS", "alpha-3": "SGS" },
        { "alpha-2": "GB", "alpha-3": "GBR" }
      ]
    },

    {
      "code": "USD",
      "name": "United States dollar",
      "rate": 1.0,
      "symbol": "$",
      "amounts": {
        "oneoff": [50, 100, 175, 350],
        "monthly": [7, 15, 20, 25],
        "annual": [75, 150, 300, 600]
      },
      "countries": [
        { "alpha-2": "AS", "alpha-3": "ASM" },
        { "alpha-2": "BQ", "alpha-3": "BES" },
        { "alpha-2": "IO", "alpha-3": "IOT" },
        { "alpha-2": "UM", "alpha-3": "UMI" },
        { "alpha-2": "VI", "alpha-3": "VIR" },
        { "alpha-2": "EC", "alpha-3": "ECU" },
        { "alpha-2": "SV", "alpha-3": "SLV" },
        { "alpha-2": "GU", "alpha-3": "GUM" },
        { "alpha-2": "MH", "alpha-3": "MHL" },
        { "alpha-2": "MP", "alpha-3": "MNP" },
        { "alpha-2": "PR", "alpha-3": "PRI" },
        { "alpha-2": "TL", "alpha-3": "TLS" },
        { "alpha-2": "TC", "alpha-3": "TCA" },
        { "alpha-2": "US", "alpha-3": "USA" }
      ]
    }
  ]
}
